<?xml version="1.0" encoding="utf-8"?>
<!-- Generator: Adobe Illustrator 21.1.0, SVG Export Plug-In . SVG Version: 6.00 Build 0)  -->
<svg version="1.1" id="Layer_1" xmlns="http://www.w3.org/2000/svg" xmlns:xlink="http://www.w3.org/1999/xlink" x="0px" y="0px"
	 viewBox="0 0 210.7 69.5" style="enable-background:new 0 0 210.7 69.5;" xml:space="preserve">
<style type="text/css">
	.st0{fill:#F71111;}
	.st1{fill:#E7454A;}
	.st2{fill:#FFFFFF;}
</style>
<g>
	<g transform="translate(4 -9)">
		<g>
			<path id="b_2_" d="M11.2,16.6h195.5V77H11.2V16.6z"/>
		</g>
		<g>
			<path id="b_1_" class="st0" d="M11.2,16.6h195.5V77H11.2V16.6z"/>
		</g>
	</g>
	<g transform="translate(4 -9)">
		<path class="st1" d="M206.7,9.9c1.8,0.3-56.6,0.7-175.2,1.1L13.3,25.8l32.1,52.7L-4,23.2L20.2,9C142.7,9.3,204.8,9.5,206.7,9.9z"
			/>
		<path class="st2" d="M30.2,9.3L20.1,9.1L-1,22.7l45.9,55L9.3,24.6L30.2,9.3z"/>
	</g>
	<g>
		<path class="st2" d="M48.1,43.6l-2.2-3.8c-0.8-1.5-1.5-2.4-1.9-3.4l0,0c-0.5,1-1,1.9-1.8,3.4l-2.1,3.8h-2.5l5.2-8.7l-5.1-8.5h2.5
			l2.3,4c0.6,1.1,1.1,1.9,1.6,2.9l0,0c0.5-1,1-1.8,1.6-2.9l2.3-4h2.5l-5.2,8.4l5.3,8.9H48.1z"/>
		<path class="st2" d="M54.1,37.9c0,3,1.9,4.2,4.2,4.2c1.6,0,2.5-0.2,3.4-0.6l0.4,1.6c-0.8,0.4-2.2,0.7-4.1,0.7
			c-3.8,0-6.1-2.5-6.1-6.2s2.2-6.7,5.8-6.7c4,0,5.1,3.5,5.1,5.8c0,0.5,0,0.8-0.1,1.1H54.1z M60.7,36.2c0-1.5-0.6-3.6-3.2-3.6
			c-2.3,0-3.3,2.1-3.4,3.6H60.7z"/>
		<path class="st2" d="M65.7,34.6c0-1.2,0-2.3-0.1-3.4h1.9l0.1,1.9h0.1c0.7-1.2,1.8-2.3,3.9-2.3c1.7,0,2.9,1,3.5,2.4l0,0
			c0.4-0.7,0.8-1.2,1.3-1.6c0.7-0.6,1.6-0.8,2.7-0.8c1.6,0,4,1.1,4,5.3v7.3H81v-7c0-2.4-0.8-3.8-2.7-3.8c-1.3,0-2.3,1-2.7,2.1
			c0,0.5,0,0.8,0,1.2v7.6h-2.2v-7.4c0-1.9-0.8-3.4-2.5-3.4c-1.5,0-2.4,1.1-2.8,2.2C68,35.3,68,35.7,68,36.1v7.4h-2.2v-8.9H65.7z"/>
		<path class="st2" d="M92.4,25.5h2.2v7.6l0,0c0.4-0.6,1-1.2,1.6-1.6c0.6-0.4,1.5-0.6,2.3-0.6c1.7,0,4.2,1,4.2,5.2v7.3h-2.2v-7
			c0-1.9-0.7-3.6-2.9-3.6c-1.5,0-2.5,1-3,2.2c-0.1,0.4-0.1,0.6-0.1,1.1v7.4h-2.2v-18H92.4z"/>
		<path class="st2" d="M118.8,28.5c0.2,0.5,0.5,1.1,0.5,1.8c0,1.2-1,2.1-2.2,2.2h-0.2v7.8c0,1.2,0,2.4,0.1,3.4h-1.9l-0.1-2.1l0,0
			c-0.6,1-1.9,2.3-4.1,2.3c-1.9,0-4.2-1.1-4.2-5.5v-7.2h2.2v6.8c0,2.3,0.7,3.9,2.8,3.9c1.5,0,2.5-1.1,2.9-2.1
			c0.1-0.4,0.2-0.7,0.2-1.1v-7.5h1.7c0.8,0,1.2-0.4,1.2-1c0-0.5-0.1-1-0.5-1.5L118.8,28.5z"/>
		<path class="st2" d="M132.3,29.1c0.2,0.5,0.5,1.1,0.5,1.8c0,1.3-0.8,2.3-2.4,2.2c0.8,1,1.2,2.4,1.2,4.1c0,4.6-3.2,6.6-6.2,6.6
			c-3.4,0-5.9-2.4-5.9-6.3c0-4.1,2.7-6.6,6.1-6.6c0.7,0,1.5,0.1,2.1,0.4c0.6,0.1,1.3,0.6,2.2,0.6c0.6,0,1-0.4,1-1s-0.1-1.1-0.4-1.5
			L132.3,29.1z M121.9,37.4c0,2.7,1.6,4.7,3.8,4.7s3.8-2.1,3.8-4.7c0-2.1-1.1-4.7-3.6-4.7C123.2,32.7,121.9,35.1,121.9,37.4z
			 M129.3,25.9l-3.2,3.6h-1.6l2.2-3.6C126.7,25.9,129.3,25.9,129.3,25.9z"/>
		<path class="st2" d="M134.6,34.6c0-1.2,0-2.3-0.1-3.4h1.9l0.1,2.1l0,0c0.6-1.2,2.1-2.3,4.1-2.3c1.7,0,4.4,1,4.4,5.2v7.4h-2.2v-7.2
			c0-1.9-0.7-3.6-2.9-3.6c-1.5,0-2.7,1.1-3,2.3c-0.1,0.2-0.1,0.6-0.1,1.1v7.4h-2.2V34.6z"/>
		<path class="st2" d="M159.4,31.2c0,0.8-0.1,1.9-0.1,3.4v7.2c0,2.8-0.6,4.6-1.7,5.6c-1.2,1.1-2.9,1.5-4.5,1.5c-1.5,0-3.2-0.4-4.1-1
			l0.6-1.7c0.8,0.5,2.1,1,3.6,1c2.3,0,4-1.2,4-4.2v-1.3l0,0c-0.7,1.1-2.1,2.1-3.9,2.1c-3,0-5.2-2.5-5.2-6.1c0-4.1,2.7-6.6,5.6-6.6
			c2.2,0,3.3,1.1,3.9,2.2l0,0l0.1-1.8h1.7V31.2z M157.1,36.1c0-0.4,0-0.7-0.1-1c-0.4-1.3-1.5-2.4-3.2-2.4c-2.2,0-3.6,1.8-3.6,4.6
			c0,2.4,1.2,4.5,3.6,4.5c1.3,0,2.7-0.8,3.2-2.3c0.1-0.4,0.1-0.8,0.1-1.2V36.1z"/>
		<path class="st2" d="M179,25.5v14.9c0,1.1,0,2.3,0.1,3.2h-2.1l-0.1-2.2l0,0c-0.7,1.3-2.2,2.4-4.2,2.4c-3,0-5.2-2.5-5.2-6.3
			c0-4.1,2.5-6.7,5.6-6.7c1.9,0,3.2,0.8,3.8,1.9l0,0v-7.4h2.2V25.5z M176.8,36.3c0-0.2,0-0.6-0.1-1c-0.4-1.5-1.6-2.5-3.3-2.5
			c-2.3,0-3.6,2.1-3.6,4.7c0,2.5,1.2,4.6,3.6,4.6c1.5,0,2.9-1,3.3-2.7c0.1-0.4,0.1-0.6,0.1-1V36.3z"/>
		<path class="st2" d="M189.6,43.6l-0.1-1.6h-0.1c-0.7,1-2.1,1.8-3.8,1.8c-2.5,0-3.8-1.7-3.8-3.5c0-3,2.7-4.6,7.4-4.6v-0.2
			c0-1-0.2-2.9-2.8-2.9c-1.1,0-2.3,0.4-3.2,1l-0.5-1.5c1-0.6,2.5-1.1,4-1.1c3.8,0,4.7,2.5,4.7,5.1v4.6c0,1.1,0,2.1,0.2,2.9
			C191.8,43.6,189.6,43.6,189.6,43.6z M187.9,26.6l2.3,3h-1.7l-1.3-1.8l0,0l-1.3,1.8h-1.7l2.3-3H187.9z M184,26.2
			c0-1.5,0.6-2.4,1.7-2.4c0.6,0,1,0.2,1.6,0.6c0.4,0.2,0.7,0.4,1.1,0.4c0.4,0,0.6-0.2,0.7-1h1.2c0,1.6-0.5,2.4-1.7,2.4
			c-0.6,0-1-0.2-1.6-0.5c-0.5-0.2-0.8-0.5-1.1-0.5c-0.4,0-0.6,0.4-0.6,1H184z M189.3,37.3c-2.4,0-5.2,0.4-5.2,2.8
			c0,1.5,1,2.2,2.1,2.2c1.6,0,2.7-1,3-2.1c0.1-0.2,0.1-0.5,0.1-0.7V37.3z"/>
		<path class="st2" d="M195,34.6c0-1.2,0-2.3-0.1-3.4h1.9l0.1,2.1l0,0c0.6-1.2,2.1-2.3,4.1-2.3c1.7,0,4.4,1,4.4,5.2v7.4h-2.2v-7.2
			c0-1.9-0.7-3.6-2.9-3.6c-1.5,0-2.7,1.1-3,2.3c-0.1,0.2-0.1,0.6-0.1,1.1v7.4H195V34.6z"/>
	</g>
</g>
</svg>
