<?xml version="1.0" encoding="utf-8"?>
<!-- Generator: Adobe Illustrator 21.1.0, SVG Export Plug-In . SVG Version: 6.00 Build 0)  -->
<svg version="1.1" id="Layer_1" xmlns="http://www.w3.org/2000/svg" xmlns:xlink="http://www.w3.org/1999/xlink" x="0px" y="0px"
	 viewBox="0 0 221 64" style="enable-background:new 0 0 221 64;" xml:space="preserve">
<style type="text/css">
	.st0{filter:url(#a);}
	.st1{fill:#F71111;}
	.st2{filter:url(#c);}
	.st3{fill:#E7454A;}
	.st4{fill:#FFFFFF;}
	.st5{enable-background:new    ;}
</style>
<filter  filterUnits="objectBoundingBox" height="135.8%" id="c" width="111.3%" x="-5.6%" y="-17.9%">
	<feOffset  dy="2" in="SourceAlpha" result="shadowOffsetOuter1"></feOffset>
	<feGaussianBlur  in="shadowOffsetOuter1" result="shadowBlurOuter1" stdDeviation="2"></feGaussianBlur>
	<feColorMatrix  in="shadowBlurOuter1" result="shadowMatrixOuter1" values="0 0 0 0 0 0 0 0 0 0 0 0 0 0 0 0 0 0 0.5 0">
		</feColorMatrix>
	<feMerge>
		<feMergeNode  in="shadowMatrixOuter1"></feMergeNode>
		<feMergeNode  in="SourceGraphic"></feMergeNode>
	</feMerge>
</filter>
<filter  filterUnits="objectBoundingBox" height="163.6%" id="a" width="114.3%" x="-7.1%" y="-22.7%">
	<feOffset  dy="4" in="SourceAlpha" result="shadowOffsetOuter1"></feOffset>
	<feGaussianBlur  in="shadowOffsetOuter1" result="shadowBlurOuter1" stdDeviation="4"></feGaussianBlur>
	<feColorMatrix  in="shadowBlurOuter1" values="0 0 0 0 0 0 0 0 0 0 0 0 0 0 0 0 0 0 0.5 0"></feColorMatrix>
</filter>
<g>
	<g transform="translate(3 -11)">
		<g class="st0">
			<path id="b_2_" d="M13.8,19h196v44h-196L13.8,19z"/>
		</g>
		<g>
			<path id="b_1_" class="st1" d="M13.8,19h196v44h-196L13.8,19z"/>
		</g>
	</g>
	<g transform="translate(3 -11)" class="st2">
		<path class="st3" d="M209.8,14.1L26.8,14.9L13.6,25.7L37,64.1L0.9,23.8l17.6-10.3L209.8,14.1z"/>
		<path class="st4" d="M25.9,13.7l-7.4-0.2l-15.4,10l33.5,40.1L10.6,24.8L25.9,13.7z"/>
	</g>
	<g class="st5">
		<path class="st4" d="M48.5,36v-6.5H47v-1.3h1.6v-6.5h4.9c1.1,0,2,0.1,2.5,0.2c0.8,0.2,1.5,0.5,2.1,1c0.8,0.6,1.3,1.5,1.7,2.4
			s0.6,2.1,0.6,3.4c0,1.5-0.2,2.7-0.7,3.8s-1,1.8-1.7,2.3s-1.4,0.8-2.2,1c-0.5,0.1-1.2,0.2-2.1,0.2H48.5z M50.4,34.3h3.1
			c1,0,1.7-0.1,2.2-0.3s1-0.4,1.3-0.7c0.4-0.4,0.8-1.1,1.1-1.8s0.4-1.7,0.4-2.8c0-1.1-0.1-2-0.4-2.7s-0.6-1.2-1-1.6
			s-0.9-0.7-1.3-0.8s-1.3-0.2-2.3-0.2h-3v4.8h3.9v1.3h-3.9V34.3z"/>
		<path class="st4" d="M69.6,34.7c-0.7,0.6-1.3,0.9-1.9,1.2s-1.2,0.3-1.9,0.3c-1.1,0-2-0.3-2.6-0.8s-0.9-1.3-0.9-2.1
			c0-0.5,0.1-1,0.3-1.4s0.5-0.8,0.9-1s0.8-0.4,1.3-0.6c0.3-0.1,0.9-0.2,1.6-0.3c1.4-0.2,2.5-0.4,3.1-0.6c0-0.2,0-0.4,0-0.5
			c0-0.7-0.2-1.2-0.5-1.5c-0.4-0.4-1.1-0.6-2-0.6c-0.8,0-1.4,0.1-1.8,0.4s-0.7,0.8-0.9,1.5l-1.7-0.2c0.2-0.7,0.4-1.3,0.8-1.8
			s0.9-0.8,1.6-1s1.5-0.4,2.4-0.4c0.9,0,1.6,0.1,2.2,0.3s1,0.5,1.2,0.8s0.4,0.7,0.5,1.2c0.1,0.3,0.1,0.8,0.1,1.6v2.3
			c0,1.6,0,2.7,0.1,3.1s0.2,0.8,0.4,1.2H70C69.8,35.6,69.7,35.2,69.6,34.7z M69.5,30.8c-0.6,0.3-1.6,0.5-2.9,0.7
			c-0.7,0.1-1.2,0.2-1.5,0.4s-0.5,0.3-0.7,0.6s-0.2,0.5-0.2,0.8c0,0.5,0.2,0.9,0.5,1.2s0.9,0.5,1.6,0.5c0.7,0,1.3-0.1,1.8-0.4
			s0.9-0.7,1.2-1.2c0.2-0.4,0.3-1,0.3-1.8V30.8z M68.9,21.7h1.2c-0.1,0.8-0.4,1.4-0.9,1.9s-1.2,0.7-2,0.7c-0.8,0-1.5-0.2-2-0.6
			s-0.8-1.1-0.9-1.9h1.2c0.1,0.4,0.3,0.8,0.5,1s0.6,0.3,1.1,0.3c0.5,0,0.9-0.1,1.2-0.3S68.8,22.2,68.9,21.7z"/>
		<path class="st4" d="M74,36V25.6h1.6v1.5c0.8-1.1,1.9-1.7,3.3-1.7c0.6,0,1.2,0.1,1.7,0.3s0.9,0.5,1.2,0.9s0.4,0.8,0.5,1.3
			c0.1,0.3,0.1,0.9,0.1,1.7V36h-1.8v-6.3c0-0.7-0.1-1.3-0.2-1.6s-0.4-0.6-0.7-0.8s-0.8-0.3-1.2-0.3c-0.7,0-1.4,0.2-1.9,0.7
			s-0.8,1.4-0.8,2.7V36H74z"/>
		<path class="st4" d="M84.9,36.9l1.7,0.3c0.1,0.5,0.3,0.9,0.6,1.2c0.4,0.3,1,0.5,1.8,0.5c0.8,0,1.4-0.2,1.9-0.5s0.7-0.8,0.9-1.4
			c0.1-0.4,0.1-1.1,0.1-2.3c-0.8,0.9-1.7,1.4-2.9,1.4c-1.4,0-2.5-0.5-3.3-1.5s-1.2-2.3-1.2-3.7c0-1,0.2-1.9,0.5-2.7s0.9-1.5,1.6-1.9
			s1.5-0.7,2.4-0.7c1.2,0,2.2,0.5,3,1.5v-1.3h1.6v9c0,1.6-0.2,2.8-0.5,3.4s-0.8,1.2-1.6,1.6s-1.6,0.6-2.6,0.6c-1.2,0-2.2-0.3-3-0.8
			S84.9,38,84.9,36.9z M86.4,30.6c0,1.4,0.3,2.4,0.8,3s1.2,0.9,2,0.9c0.8,0,1.5-0.3,2-0.9s0.8-1.6,0.8-2.9c0-1.3-0.3-2.2-0.8-2.9
			s-1.2-1-2-1c-0.8,0-1.4,0.3-2,1S86.4,29.4,86.4,30.6z"/>
		<path class="st4" d="M105.9,34.4l0.3,1.6c-0.5,0.1-0.9,0.2-1.3,0.2c-0.6,0-1.1-0.1-1.5-0.3s-0.6-0.5-0.7-0.8s-0.2-1-0.2-2.1v-6
			h-1.3v-1.4h1.3v-2.6l1.7-1.1v3.6h1.8V27h-1.8v6.1c0,0.5,0,0.8,0.1,1s0.2,0.3,0.3,0.3s0.3,0.1,0.6,0.1
			C105.3,34.5,105.6,34.5,105.9,34.4z"/>
		<path class="st4" d="M114.5,34.7c-0.7,0.6-1.3,0.9-1.9,1.2c-0.6,0.2-1.2,0.3-1.9,0.3c-1.1,0-2-0.3-2.6-0.8s-0.9-1.3-0.9-2.1
			c0-0.5,0.1-1,0.3-1.4s0.5-0.8,0.9-1s0.8-0.4,1.3-0.6c0.3-0.1,0.9-0.2,1.6-0.3c1.4-0.2,2.5-0.4,3.1-0.6c0-0.2,0-0.4,0-0.5
			c0-0.7-0.2-1.2-0.5-1.5c-0.4-0.4-1.1-0.6-2-0.6c-0.8,0-1.4,0.1-1.8,0.4s-0.7,0.8-0.9,1.5l-1.7-0.2c0.2-0.7,0.4-1.3,0.8-1.8
			s0.9-0.8,1.6-1s1.5-0.4,2.4-0.4c0.9,0,1.6,0.1,2.2,0.3c0.6,0.2,1,0.5,1.2,0.8c0.3,0.3,0.4,0.7,0.5,1.2c0.1,0.3,0.1,0.8,0.1,1.6
			v2.3c0,1.6,0,2.7,0.1,3.1c0.1,0.4,0.2,0.8,0.4,1.2h-1.8C114.7,35.6,114.5,35.2,114.5,34.7z M114.3,30.8c-0.6,0.3-1.6,0.5-2.9,0.7
			c-0.7,0.1-1.2,0.2-1.5,0.4s-0.5,0.3-0.7,0.6s-0.2,0.5-0.2,0.8c0,0.5,0.2,0.9,0.5,1.2s0.9,0.5,1.6,0.5c0.7,0,1.3-0.1,1.8-0.4
			s0.9-0.7,1.2-1.2c0.2-0.4,0.3-1,0.3-1.8V30.8z M112.3,23.1c0.3-0.1,0.5-0.3,0.5-0.5c0-0.1-0.1-0.3-0.3-0.4
			c-0.3-0.1-0.7-0.2-1.3-0.2c-0.2,0-0.5,0-0.9,0l-0.1-1c0.3-0.1,0.7-0.1,1.4-0.1c0.8,0,1.5,0.1,2,0.4c0.6,0.3,0.8,0.7,0.9,1.1
			c0,0.8-0.6,1.3-1.8,1.4v0.5h-1.1v-1.2C112,23.1,112.2,23.1,112.3,23.1z"/>
		<path class="st4" d="M118.9,23.7v-2h1.8v2H118.9z M118.9,36V25.6h1.8V36H118.9z"/>
		<path class="st4" d="M132,36L128,25.6h1.9l2.2,6.2c0.2,0.7,0.5,1.4,0.7,2.1c0.2-0.5,0.4-1.2,0.7-2l2.3-6.3h1.8L133.6,36H132z"/>
		<path class="st4" d="M139.2,23.7v-2h1.8v2H139.2z M139.2,36V25.6h1.8V36H139.2z"/>
		<path class="st4" d="M150.4,36v-1.3c-0.7,1-1.6,1.5-2.9,1.5c-0.8,0-1.6-0.2-2.3-0.7s-1.2-1.1-1.6-1.9s-0.6-1.8-0.6-2.8
			c0-1,0.2-2,0.5-2.8s0.9-1.5,1.6-1.9s1.5-0.7,2.3-0.7c0.6,0,1.2,0.1,1.7,0.4s0.9,0.6,1.2,1v-5.1h1.7V36H150.4z M144.9,30.8
			c0,1.3,0.3,2.3,0.8,3s1.2,1,2,1c0.8,0,1.4-0.3,2-0.9s0.8-1.6,0.8-2.9c0-1.4-0.3-2.5-0.8-3.1s-1.2-1-2-1c-0.8,0-1.4,0.3-2,1
			S144.9,29.5,144.9,30.8z"/>
		<path class="st4" d="M162,32.7l1.8,0.2c-0.3,1.1-0.8,1.9-1.6,2.5s-1.8,0.9-3,0.9c-1.5,0-2.7-0.5-3.6-1.4s-1.3-2.2-1.3-3.9
			c0-1.7,0.4-3.1,1.3-4.1s2.1-1.4,3.5-1.4c1.4,0,2.5,0.5,3.4,1.4s1.3,2.3,1.3,4c0,0.1,0,0.3,0,0.5h-7.7c0.1,1.1,0.4,2,1,2.6
			s1.3,0.9,2.2,0.9c0.6,0,1.2-0.2,1.7-0.5S161.7,33.4,162,32.7z M156.2,29.8h5.8c-0.1-0.9-0.3-1.5-0.7-2c-0.6-0.7-1.3-1-2.2-1
			c-0.8,0-1.5,0.3-2,0.8S156.3,28.9,156.2,29.8z"/>
		<path class="st4" d="M165.4,30.8c0-1.9,0.5-3.3,1.6-4.3c0.9-0.8,2-1.2,3.3-1.2c1.4,0,2.6,0.5,3.5,1.4s1.4,2.2,1.4,3.9
			c0,1.3-0.2,2.4-0.6,3.1s-1,1.4-1.7,1.8s-1.6,0.6-2.5,0.6c-1.5,0-2.6-0.5-3.5-1.4S165.4,32.6,165.4,30.8z M167.2,30.8
			c0,1.3,0.3,2.3,0.9,3s1.3,1,2.2,1c0.9,0,1.6-0.3,2.2-1s0.9-1.7,0.9-3c0-1.3-0.3-2.3-0.9-2.9s-1.3-1-2.2-1c-0.9,0-1.6,0.3-2.2,1
			S167.2,29.5,167.2,30.8z"/>
	</g>
</g>
</svg>
