<?xml version="1.0" encoding="utf-8"?>
<!-- Generator: Adobe Illustrator 21.1.0, SVG Export Plug-In . SVG Version: 6.00 Build 0)  -->
<svg version="1.1" id="Layer_1" xmlns="http://www.w3.org/2000/svg" xmlns:xlink="http://www.w3.org/1999/xlink" x="0px" y="0px"
	 viewBox="0 0 151 151" style="enable-background:new 0 0 151 151;" xml:space="preserve">
<style type="text/css">
	.st0{opacity:0.2;fill:url(#SVGID_1_);enable-background:new    ;}
	.st1{opacity:0.3;fill:url(#SVGID_2_);enable-background:new    ;}
	.st2{filter:url(#c);}
	.st3{fill:#F71111;stroke:#FFFFFF;stroke-width:2;}
	.st4{enable-background:new    ;}
	.st5{fill:#FFFFFF;}
</style>
<filter  filterUnits="objectBoundingBox" height="140.3%" id="c" width="140.3%" x="-20.1%" y="-13.6%">
	<feMorphology  in="SourceAlpha" operator="dilate" radius="1" result="shadowSpreadOuter1"></feMorphology>
	<feOffset  dy="5" in="shadowSpreadOuter1" result="shadowOffsetOuter1"></feOffset>
	<feGaussianBlur  in="shadowOffsetOuter1" result="shadowBlurOuter1" stdDeviation="4"></feGaussianBlur>
	<feComposite  in="shadowBlurOuter1" in2="SourceAlpha" operator="out" result="shadowBlurOuter1"></feComposite>
	<feColorMatrix  in="shadowBlurOuter1" values="0 0 0 0 0.968627451 0 0 0 0 0.0666666667 0 0 0 0 0.0666666667 0 0 0 1 0">
		</feColorMatrix>
</filter>
<g>
	
		<radialGradient id="SVGID_1_" cx="-51.8444" cy="203.8823" r="0.627" gradientTransform="matrix(-151 0 0 149.336 -7753 -30376.5645)" gradientUnits="userSpaceOnUse">
		<stop  offset="0" style="stop-color:#FFFFFF;stop-opacity:0"/>
		<stop  offset="1" style="stop-color:#F71111"/>
	</radialGradient>
	<circle class="st0" cx="75.5" cy="75.5" r="75.5"/>
	
		<radialGradient id="SVGID_2_" cx="-51.9874" cy="203.9879" r="0.6864" gradientTransform="matrix(-110.9058 -4.5727 -4.5223 109.6836 -4767.7153 -22540.2051)" gradientUnits="userSpaceOnUse">
		<stop  offset="0" style="stop-color:#FFFFFF;stop-opacity:0"/>
		<stop  offset="1" style="stop-color:#F71111"/>
	</radialGradient>
	<circle class="st1" cx="75.5" cy="75.5" r="55.5"/>
	<g class="st2">
		<circle id="d_2_" cx="75.5" cy="75.5" r="38.5"/>
	</g>
	<g>
		<circle id="d_1_" class="st3" cx="75.5" cy="75.5" r="38.5"/>
	</g>
	<g class="st4">
		<path class="st5" d="M62.8,83.9l6.4-0.8c0.2,1.6,0.8,2.9,1.6,3.7s2,1.3,3.2,1.3c1.4,0,2.5-0.5,3.4-1.5s1.4-2.4,1.4-4.2
			c0-1.7-0.4-3-1.3-3.9s-2-1.5-3.3-1.5c-0.8,0-1.9,0.2-3,0.5l0.7-5.4c1.8,0,3.1-0.3,4.1-1.2s1.4-1.9,1.4-3.3c0-1.2-0.3-2.1-1-2.8
			s-1.6-1-2.7-1c-1.1,0-2.1,0.4-2.9,1.2s-1.3,1.9-1.5,3.4l-6.1-1c0.4-2.1,1.1-3.7,1.9-5s2-2.2,3.6-2.9s3.2-1.1,5.1-1.1
			c3.2,0,5.8,1,7.8,3.1c1.6,1.7,2.4,3.6,2.4,5.7c0,3-1.6,5.4-4.9,7.2c2,0.4,3.5,1.4,4.7,2.8s1.8,3.2,1.8,5.3c0,3-1.1,5.6-3.3,7.7
			s-4.9,3.2-8.2,3.2c-3.1,0-5.7-0.9-7.7-2.7S63.1,86.8,62.8,83.9z"/>
	</g>
</g>
</svg>
