<?xml version="1.0" encoding="utf-8"?>
<!-- Generator: Adobe Illustrator 21.1.0, SVG Export Plug-In . SVG Version: 6.00 Build 0)  -->
<svg version="1.1" id="Layer_1" xmlns="http://www.w3.org/2000/svg" xmlns:xlink="http://www.w3.org/1999/xlink" x="0px" y="0px"
	 viewBox="0 0 1440 376" style="enable-background:new 0 0 1440 376;" xml:space="preserve">
<style type="text/css">
	.st0{filter:url(#Adobe_OpacityMaskFilter);}
	.st1{fill:#FFFFFF;}
	.st2{opacity:0.8;mask:url(#b);}
	.st3{fill:#D21520;}
	.st4{fill:#940317;}
</style>
<g transform="translate(0 -53)">
	<defs>
		<filter id="Adobe_OpacityMaskFilter" filterUnits="userSpaceOnUse" x="-1.7" y="52.6" width="1441.6" height="376.5">
			<feColorMatrix  type="matrix" values="1 0 0 0 0  0 1 0 0 0  0 0 1 0 0  0 0 0 1 0"/>
		</filter>
	</defs>
	<mask maskUnits="userSpaceOnUse" x="-1.7" y="52.6" width="1441.6" height="376.5" id="b">
		<g class="st0">
			<path id="a" class="st1" d="M0,0.6h1441v461H0V0.6z"/>
		</g>
	</mask>
	<g class="st2">
		<path class="st3" d="M-1.7,429.1V53l1440.8-0.4L-1.7,429.1z"/>
		<path class="st4" d="M1439.9,136.9L397.2,361.1L1439.9,60.7V136.9z"/>
	</g>
</g>
</svg>
