<?xml version="1.0" encoding="utf-8"?>
<!-- Generator: Adobe Illustrator 21.1.0, SVG Export Plug-In . SVG Version: 6.00 Build 0)  -->
<svg version="1.1" id="Layer_1" xmlns="http://www.w3.org/2000/svg" xmlns:xlink="http://www.w3.org/1999/xlink" x="0px" y="0px"
	 viewBox="0 0 1441.6 225" style="enable-background:new 0 0 1441.6 225;" xml:space="preserve">
<style type="text/css">
	.st0{fill:#D21520;}
	.st1{fill:#940317;}
</style>
<path class="st0" d="M0,225V0.2L1440.8,0L0,225z"/>
<path class="st1" d="M1441.6,50.4l-1042.7,134L1441.6,4.8V50.4z"/>
</svg>
