<?xml version="1.0" encoding="utf-8"?>
<!-- Generator: Adobe Illustrator 21.1.0, SVG Export Plug-In . SVG Version: 6.00 Build 0)  -->
<svg version="1.1" id="Layer_1" xmlns="http://www.w3.org/2000/svg" xmlns:xlink="http://www.w3.org/1999/xlink" x="0px" y="0px"
	 viewBox="0 0 83.9 1229.9" style="enable-background:new 0 0 83.9 1229.9;" xml:space="preserve">
<style type="text/css">
	.st0{fill:none;stroke:url(#SVGID_1_);stroke-width:8.9434;stroke-linecap:round;stroke-linejoin:bevel;}
</style>
<radialGradient id="SVGID_1_" cx="-384.2571" cy="21.8693" r="4.1157" gradientTransform="matrix(15.4726 167.5334 -63.6347 30.5861 7393.4673 64340.9688)" gradientUnits="userSpaceOnUse">
	<stop  offset="0" style="stop-color:#F71111"/>
	<stop  offset="1" style="stop-color:#F71111;stop-opacity:0"/>
</radialGradient>
<path class="st0" d="M76.6,4.5v286.9c2.2,37-4.5,60.5-20.2,70.5c-23.5,14.8-51.9-8.6-51.9,58.8v429c0.2,37.2,11.2,57.2,32.9,60.1
	c32.6,4.4,41.1,12.9,41.8,60.1c0.4,31.4,0.4,116.6,0,255.6"/>
</svg>
