<?xml version="1.0" encoding="utf-8"?>
<!-- Generator: Adobe Illustrator 21.1.0, SVG Export Plug-In . SVG Version: 6.00 Build 0)  -->
<svg version="1.1" id="Layer_1" xmlns="http://www.w3.org/2000/svg" xmlns:xlink="http://www.w3.org/1999/xlink" x="0px" y="0px"
	 viewBox="0 0 163.4 14.2" style="enable-background:new 0 0 163.4 14.2;" xml:space="preserve">
<style type="text/css">
	.st0{fill:#FFFFFF;}
</style>
<g>
	<path class="st0" d="M8,3.6L6.5,6.1C6.1,5.7,5.6,5.5,5.1,5.5c-0.5,0-1,0.2-1.4,0.6S3.1,6.9,3.1,7.4c0,0.3,0.1,0.6,0.3,0.9
		S4,8.6,4.3,8.6c0.5,0,1.1-0.2,1.8-0.6l0.3,2.6c-0.9,0.5-1.8,0.8-2.7,0.8c-1.2,0-2.1-0.3-2.7-1S0,9,0,8.1c0-0.3,0-0.6,0.1-0.9
		c0.3-1.3,1-2.3,2-3.2c1-0.8,2.2-1.2,3.4-1.2C6.4,2.7,7.2,3,8,3.6z"/>
	<path class="st0" d="M16.4,2.9l-1.1,5.3c-0.2,1-0.7,1.8-1.6,2.3s-1.8,0.9-3,0.9c-1,0-1.8-0.2-2.4-0.7S7.4,9.7,7.4,8.9
		c0-0.2,0-0.4,0.1-0.7l1.1-5.3h3.1l-1,4.9c0,0.1,0,0.2,0,0.3c0,0.4,0.2,0.7,0.6,0.7c0.5,0,0.8-0.3,1-1l1-4.9H16.4z"/>
	<path class="st0" d="M25.5,7.1c-0.3,1.4-1,2.5-2.2,3.3c-1,0.7-2.2,1.1-3.4,1.1c-1.1,0-2-0.3-2.7-1s-1-1.5-1-2.5
		c0-0.3,0-0.6,0.1-0.9c0.3-1.2,0.9-2.3,2-3.1s2.3-1.2,3.6-1.2c1.1,0,2,0.3,2.7,0.9c0.7,0.6,1.1,1.5,1.1,2.5
		C25.6,6.4,25.6,6.8,25.5,7.1z M18.8,14.2c-0.5,0-0.8-0.3-0.8-0.8c0-0.3,0.1-0.7,0.4-0.9s0.5-0.4,0.9-0.4c0.2,0,0.4,0.1,0.6,0.2
		s0.2,0.3,0.2,0.6c0,0.3-0.1,0.7-0.4,0.9S19.2,14.2,18.8,14.2z M22.5,7.1c0-0.1,0-0.2,0-0.3c0-0.4-0.1-0.7-0.4-0.9s-0.6-0.4-0.9-0.4
		c-0.5,0-0.9,0.2-1.3,0.6S19.3,7,19.3,7.4c0,0.4,0.1,0.7,0.4,0.9s0.5,0.3,0.9,0.3c0.4,0,0.8-0.1,1.2-0.4S22.4,7.6,22.5,7.1z
		 M24.2,1.5l-0.6,1L22,1.7l-2,0.8l-0.2-1l2.4-1.2L24.2,1.5z"/>
	<path class="st0" d="M34.1,3.6l-1.5,2.6c-0.4-0.4-0.9-0.6-1.5-0.6c-0.5,0-1,0.2-1.4,0.6s-0.6,0.8-0.6,1.3c0,0.3,0.1,0.6,0.3,0.9
		s0.5,0.3,0.9,0.3c0.5,0,1.1-0.2,1.8-0.6l0.3,2.6c-0.9,0.5-1.8,0.8-2.7,0.8c-1.2,0-2.1-0.3-2.7-1s-1-1.5-1-2.4c0-0.3,0-0.6,0.1-0.9
		c0.3-1.3,1-2.3,2-3.2c1-0.8,2.2-1.2,3.4-1.2C32.5,2.7,33.3,3,34.1,3.6z"/>
	<path class="st0" d="M44.4,2.9L43,5.6h-1.4l-1.2,5.7h-3.1l1.2-5.7h-1.5l0.6-2.7H44.4z"/>
	<path class="st0" d="M52.6,2.9l-1.8,8.4h-3.1l0.6-2.9h-1.9l-0.6,2.9h-3.1l1.8-8.4h3.1L47,5.6h1.9l0.6-2.7H52.6z"/>
	<path class="st0" d="M56.5,2.9l-1.8,8.4h-3.1l1.8-8.4H56.5z"/>
	<path class="st0" d="M66.8,3.6l-1.2,2.2c-0.6-0.5-1.1-0.7-1.6-0.7c-0.2,0-0.4,0-0.5,0.1s-0.2,0.2-0.2,0.3c0,0.2,0.2,0.3,0.7,0.5
		c0.7,0.2,1.2,0.3,1.4,0.5c0.5,0.3,0.8,0.8,0.8,1.4c0,0.2,0,0.4-0.1,0.6c-0.2,0.9-0.7,1.6-1.5,2.2c-0.8,0.6-1.8,0.9-2.8,0.9
		c-1,0-2-0.3-2.9-1L60.2,8c0.7,0.7,1.3,1,1.9,1c0.4,0,0.7-0.1,0.7-0.4c0-0.2-0.2-0.3-0.7-0.4C61.5,8,61,7.8,60.8,7.6
		C60.3,7.3,60,6.8,60,6.2c0-0.2,0-0.4,0.1-0.6c0.1-0.7,0.6-1.3,1.3-1.9c0.8-0.6,1.7-0.9,2.7-0.9C65.1,2.8,66,3.1,66.8,3.6z"/>
	<path class="st0" d="M74.6,11.3h-3.4v-1.1h-2l-0.5,1.1h-3.3l4.8-8.4h3.2L74.6,11.3z M71.3,8.1l0-2.8L70,8.1H71.3z M73.2,0.8l-2,1.8
		l-1-0.6L71.9,0L73.2,0.8z"/>
	<path class="st0" d="M84.9,2.9l-1.8,8.4H80l-1.6-3.8l-0.8,3.8h-3l1.8-8.4h3l1.5,4l0.8-4H84.9z"/>
	<path class="st0" d="M94.1,6.4c0,0.1,0,0.3-0.1,0.7c-0.3,1.2-0.9,2.3-1.9,3.1c-1,0.9-2.2,1.3-3.6,1.3c-1.2,0-2.1-0.3-2.8-0.9
		s-1.1-1.5-1.1-2.5c0-0.3,0-0.6,0.1-0.9C85,6,85.6,5,86.6,4.1c1.1-0.9,2.3-1.4,3.7-1.4c0.9,0,1.7,0.2,2.3,0.6s1.1,0.9,1.3,1.6
		l-3,1.1c-0.1-0.2-0.2-0.4-0.4-0.5s-0.4-0.2-0.7-0.2c-0.4,0-0.8,0.2-1.2,0.5S88,6.6,87.9,7.1c0,0.2-0.1,0.3-0.1,0.5
		c0,0.4,0.1,0.8,0.4,1s0.6,0.4,1,0.4c0.6,0,1-0.3,1.3-0.8h-1.3l0.4-1.9H94.1z"/>
	<path class="st0" d="M105.3,2.9L104,5.6h-1.4l-1.2,5.7h-3.1l1.2-5.7H98l0.6-2.7H105.3z"/>
	<path class="st0" d="M112.1,11.3h-3.4v-1.1h-2l-0.5,1.1h-3.3l4.8-8.4h3.2L112.1,11.3z M107,14.2c-0.5,0-0.8-0.3-0.8-0.8
		c0-0.3,0.1-0.7,0.4-0.9s0.5-0.4,0.9-0.4c0.2,0,0.4,0.1,0.6,0.2s0.2,0.3,0.2,0.6c0,0.3-0.1,0.7-0.4,0.9S107.3,14.2,107,14.2z
		 M108.8,8.1l0-2.8l-1.2,2.8H108.8z"/>
	<path class="st0" d="M122.2,7.1c-0.3,1.4-1,2.5-2.2,3.3c-1,0.7-2.2,1.1-3.4,1.1c-1.1,0-2-0.3-2.7-1s-1-1.5-1-2.5
		c0-0.3,0-0.6,0.1-0.9c0.3-1.2,0.9-2.3,2-3.1s2.3-1.2,3.6-1.2c1.1,0,2,0.3,2.7,0.9c0.7,0.6,1.1,1.5,1.1,2.5
		C122.3,6.4,122.3,6.8,122.2,7.1z M119.2,7.1c0-0.1,0-0.2,0-0.3c0-0.4-0.1-0.7-0.4-0.9s-0.6-0.4-0.9-0.4c-0.5,0-0.9,0.2-1.3,0.6
		S116,7,116,7.4c0,0.4,0.1,0.7,0.4,0.9s0.5,0.3,0.9,0.3c0.4,0,0.8-0.1,1.2-0.4S119.1,7.6,119.2,7.1z"/>
	<path class="st0" d="M135.4,2.9l-4.9,8.4h-2.7l-1.4-8.4h3.1l0.3,4.7l2.3-4.7H135.4z"/>
	<path class="st0" d="M138.6,2.9l-1.8,8.4h-3.1l1.8-8.4H138.6z"/>
	<path class="st0" d="M146.5,7.1c-0.3,1.3-0.9,2.3-1.8,3.1s-2,1.1-3.2,1.1h-3.8l1.8-8.4h3.9c1,0,1.8,0.3,2.4,0.9s0.9,1.3,0.9,2.3
		C146.6,6.4,146.6,6.7,146.5,7.1z M143.3,7c0-0.1,0-0.3,0-0.4c0-0.4-0.1-0.6-0.3-0.8s-0.5-0.3-0.8-0.3H142l-0.7,3.2h0.2
		C142.5,8.6,143,8.1,143.3,7z"/>
	<path class="st0" d="M154.5,2.9l-1.1,2.4h-2.6L150.6,6h2.3l-0.5,2.3h-2.3L150,8.9h3.3l-1.2,2.3h-5.7l1.8-8.4H154.5z"/>
	<path class="st0" d="M163.3,7.1c-0.3,1.4-1,2.5-2.2,3.3c-1,0.7-2.2,1.1-3.4,1.1c-1.1,0-2-0.3-2.7-1s-1-1.5-1-2.5
		c0-0.3,0-0.6,0.1-0.9c0.3-1.2,0.9-2.3,2-3.1s2.3-1.2,3.6-1.2c1.1,0,2,0.3,2.7,0.9c0.7,0.6,1.1,1.5,1.1,2.5
		C163.4,6.4,163.3,6.8,163.3,7.1z M160.2,7.1c0-0.1,0-0.2,0-0.3c0-0.4-0.1-0.7-0.4-0.9s-0.6-0.4-0.9-0.4c-0.5,0-0.9,0.2-1.3,0.6
		S157,7,157,7.4c0,0.4,0.1,0.7,0.4,0.9s0.5,0.3,0.9,0.3c0.4,0,0.8-0.1,1.2-0.4S160.1,7.6,160.2,7.1z"/>
</g>
</svg>
