{
  "type": "service_account",
  "project_id": "honda-ar-ac35d",
  "private_key_id": "75b099a730a392740a533d21893803db194d6252",
  "private_key": "-----BEGIN PRIVATE KEY-----\nMIIEvQIBADANBgkqhkiG9w0BAQEFAASCBKcwggSjAgEAAoIBAQC/Cn/h9/5XwRQ1\nMYPoRl5noBiD2ir3QerjYhqSBwPvPX2BIhsQ53ZomMnkPnc46Zwy+GkCQXcf5M7H\n/QNkAtdBqmnFJ2PJ5cfyNvuX2ZQolZ2K83vk9RhuwX+SDjfQKkQu6AhUxnUnDi1a\nkd1HjJN0/aJGmbB/Q+z12+DrjkFpyb6tCekpw6k+CdpQbD4Wto6rcaeY4caaUYCB\nSYGRAu1ZYCV9NLACBgY6MJKu+Jpw63sMbYSCgmXeQtRQCIYT0L+pS4bllbYZLksj\n+MAseQvxF3NfE6OlF2aavWoffeoE/2H/0edl8e7sXNy2CanwumIyZ6TU9ou0pD/W\nRMKcoACJAgMBAAECggEAVpYEKx9S5GQq7AcSsYp/TDlIEy6lLabvNnrm7wuF8X9t\nrEMQgGNgC/0/+BaFw8JB3Oow8ehI/Sgfvo3C5SfSdz0tLkHxnPbr3jCkbIkdeR2C\np5E+tKGPntdNoh2Wl18owxfAeuft/jMTREr7P2wMA0jXrWcIE05ujmpHcYvqwu52\ny+OpCAdU761/UDaiX62PXjwQVXGsjyzcaSIqGefLESMRfIgYkU4bSqAVY7Byo7C7\nlKEEZ5aAd+8w7KZNPK86nJLTulOZfWWmWamVfeEzk5lxwyvmvcNxw9x8Ht52JzS1\nK+oR6Pe3P/QoHK0dyTA05MITNy3lgseSojT4+xZI/wKBgQD7EnHv73kjiU4X65z0\nVRYoiXP2t/6bRjM5+/BGNmtiN8JW48qaKHcVI477X+FJ5G8dm7eE8uvRegEeQe3c\njVjHohIH1RgmVjX77M0wzTgXLuNdvj/jE/FZHYtwlvdkQAZWnpjLozn7km0B3C3x\nihjtg0YaUpw8c6hzV7qJUj5zywKBgQDCymsLwYD6idkpVxFlSjEYQxCrFjXF+wDn\nIH57vOVIX3dNgYpX9YCc1gypu6SEfK9S7Ug2CIYjrMnpJaKSpKsOje2cr1b7fR2f\nBBSGlxL9WCgi1/4rQimleDYowEcmge9XT+gKN6HE23cigtXO74ksJHNnezqF2tuY\nsu05GJtaewKBgQDDBU7PSrpT6iFo3zEpcLYngq065Sy1u8+qqJG4WCkNP7aK+6Gy\nIOBu4RH9HDrIxNGys/PXJ0IZkqUvtZJnkLt3ReKvhsydarXAG+4+jAmXqGoftNm3\nLxR3XkWjjQBZNIo32jVhaEZvrQtTOI3PYq9+PkvDwottQYGFJo3UgLfWBQKBgHIp\nxHdNX9R2uin6d52P0BpSJBDBoZ55L9xGNRs8aHz0Rq3MQFKw9kH1SdKowRFNKkxF\n+U6BzGxYNrZIcnHTxNVw5VQxh585gwTRlV4UaPLGmi9hu/uKeXIbdFKJ7qlo+eeI\nU4y5cjw4DCjT2Y/A3/pZGrIJjREqZg2mwFX4UATFAoGAYdszypqw4+nwIMArvcsg\n0h5lhHle2IGCeoUsUHPbAylfi7Mdv0d7NLRse2DUOjz376fX/1QQrJ8VdKuN+Z2a\nOMlN24vDdPloh7ed4XcU5bQIk3lbzBKfBu5NTFWCnMiWgUk5G62EPLwTg6lvZYle\nvjaiHAvFeRasu1X0TBWKF68=\n-----END PRIVATE KEY-----\n",
  "client_email": "owner-866@honda-ar-ac35d.iam.gserviceaccount.com",
  "client_id": "116502176619978550772",
  "auth_uri": "https://accounts.google.com/o/oauth2/auth",
  "token_uri": "https://oauth2.googleapis.com/token",
  "auth_provider_x509_cert_url": "https://www.googleapis.com/oauth2/v1/certs",
  "client_x509_cert_url": "https://www.googleapis.com/robot/v1/metadata/x509/owner-866%40honda-ar-ac35d.iam.gserviceaccount.com"
}
