<svg xmlns="http://www.w3.org/2000/svg" width="80" height="65" viewBox="0 0 80 65">
    <g fill="#EA2030" fill-rule="evenodd">
        <path d="M9.156 55.778l1.205.144c.535.06.598.517.598.809v1.44H5.404v-1.44c0-.292.062-.749.601-.81l1.204-.143v-1.233H0v1.233l1.203.144c.544.06.602.517.602.809v4.722c0 .295-.058.75-.602.813L0 62.406v1.23h7.21v-1.23l-1.205-.14c-.54-.064-.6-.518-.6-.813v-1.44h5.554v1.44c0 .295-.063.75-.598.813l-1.205.14v1.23h7.208v-1.23l-1.206-.14c-.538-.064-.594-.518-.594-.813V56.73c0-.292.056-.749.594-.81l1.206-.143v-1.233H9.156v1.233zM57.255 61.896l-2.95.003v-5.61h2.95c1.745 0 2.334.853 2.334 2.802 0 1.952-.59 2.805-2.334 2.805m.644-7.35h-8.701v1.23l1.04.114c.368.048.614.211.614.743v4.82c0 .295-.06.75-.582.813l-1.18.138v1.232H57.9c3.15 0 5.737-1.311 5.737-4.545 0-3.231-2.588-4.546-5.737-4.546"/>
        <path d="M68.58 59.244l1.727-2.798 1.839 2.798h-3.567zm10.256 3.03c-.578-.065-.76-.435-.938-.714l-4.213-6.411c-.304-.461-.523-.604-.975-.604h-6.934v1.232l1.652.187c.23.025.552.341.292.768l-3.11 5.044c-.133.204-.288.441-.648.49l-1.235.138v1.232h5.848v-1.232l-1.01-.1c-.428-.042-.66-.346-.445-.693l.466-.762H73.2l.415.629c.363.556-.095.784-.49.82l-1.036.106v1.232H80v-1.232l-1.164-.13zM42.554 55.778l1.176.144c.525.06.58.517.58.809v4.55l-4.646-6.35c-.211-.288-.394-.386-.893-.386h-6.044v1.233l1.178.144c.525.06.588.517.588.809v4.722c0 .295-.063.75-.588.813l-1.178.14v1.23h5.628v-1.23l-1.176-.14c-.527-.064-.584-.518-.584-.813v-4.549l4.653 6.349c.21.29.392.383.891.383H46.42v-6.905c0-.292.055-.749.586-.81l1.176-.143v-1.233h-5.628v1.233zM24.544 62.762c-2.24 0-3.175-.99-3.175-3.217 0-2.225.934-3.215 3.175-3.215 2.24 0 3.176.99 3.176 3.215 0 2.227-.936 3.217-3.176 3.217m0-8.217c-5.78 0-7.271 2.667-7.271 5 0 2.334 1.49 5 7.271 5s7.274-2.666 7.274-5c0-2.333-1.493-5-7.274-5M21.642 52.727l-4.37-3.895 22.06-2.468L50 52.727zM58.015 35.456l-46.197 8.896 4.02 3.83 21.266-2.762c-.317-.16-.404-.388-.404-.626 0-.266.206-.54.543-.584.233-.028 11.82-1.78 12.616-1.904a8.147 8.147 0 0 0 2.377-.746 8.316 8.316 0 0 0 2.007-1.393 39.33 39.33 0 0 0 1.813-1.92c.423-.491.728-.85.985-1.157.28-.329.876-1.068 1.114-1.398.065-.1.01-.253-.14-.236M65.237 25.462L7.273 40.402l3.489 3.234 17.835-3.414c-.313-.183-.47-.32-.47-.628 0-.21.132-.515.487-.585l29.02-5.634a7.181 7.181 0 0 0 2.394-.935c.942-.587 1.442-1.164 1.742-1.504.38-.43 1.064-1.312 1.566-1.991.379-.508.692-.999.946-1.365.254-.364.887-1.401 1.148-1.869.072-.124-.022-.294-.193-.249"/>
        <path d="M57.467 8.962c.789-.326 4.571-1.962 5.43-2.356.835-.382 3.372-1.517 4.302-1.936 1.032-.466 4.042-1.88 4.496-2.1C73.81 1.557 76.426.312 76.962.023c.137-.076.367.04.298.257a44.85 44.85 0 0 1-1.577 4.232c-.37.863-.942 2.14-1.43 2.953a9.539 9.539 0 0 1-1.764 2.15c-1.057.949-1.937 1.47-2.848 1.83-.609.235-1.79.704-2.584 1.005-.191.076-3.382 1.275-4.033 1.484L6.575 33.86c-1.322.456-2.862 1.34-2.862 3.047 0 .745.458 1.702 1.336 2.526l14.25 13.294h-6.6a7.184 7.184 0 0 0-.578-1.329c-.229-.4-.4-.754-1.109-1.462-.564-.565-1.136-1.153-1.33-1.352L2.156 41.06C.765 39.669 0 37.893 0 36.256c0-2.263 1.255-4.425 4.997-5.957l52.47-21.337z"/>
        <path d="M64.63 16.552c.785-.26 2.22-.753 2.6-.89.385-.137 1.863-.682 2.122-.78 1.06-.407 2.067-.792 3.094-1.229.169-.063.337.062.263.244-.118.291-.78 1.71-.965 2.052-.467.873-.886 1.667-1.364 2.413-.414.65-1.037 1.627-1.405 2.073-.64.782-1.16 1.291-2.065 1.912-1.131.774-2.175 1.056-2.613 1.185l-42.06 11.382c-.318.075-.442.402-.442.587 0 .237.152.467.426.596L7.319 40l-1.215-1.145c-.448-.413-.65-.969-.65-1.398 0-1.101.857-1.614 2.175-2.048l57-18.857z"/>
    </g>
</svg>
